259 HW Quarto Tabilin
…
# A tibble: 6 × 3
# Groups:   id [6]
     id age_group precision
  <dbl> <chr>         <dbl>
1    52 1-1.5 y        3.02
2    78 .5-1 y         3.45
3    79 .5-1 y         4.89
4    81 .5-1 y         2.68
5    84 4-6 y          2.64
6   108 .5-1 y         4.1 

ds %>% filter(precision > 2.5)

# A tibble: 25 × 8
   stim          id   age AUC_sal AUC_dist age_group precision watched
   <fct>      <dbl> <dbl>   <dbl>    <dbl> <chr>         <dbl> <fct>  
 1 Feist         52   539   0.547    0.507 1-1.5 y        3.02 No     
 2 Science       52   539   0.447    0.356 1-1.5 y        3.02 No     
 3 Plane         52   539   0.498    0.484 1-1.5 y        3.02 No     
 4 Dogs          52   539   0.668    0.470 1-1.5 y        3.02 No     
 5 Feist         78   198   0.507    0.449 .5-1 y         3.45 No     
 6 Pentatonix    78   198   0.577    0.580 .5-1 y         3.45 No     
 7 Science       78   198   0.755    0.821 .5-1 y         3.45 No     
 8 Plane         78   198   0.611    0.555 .5-1 y         3.45 No     
 9 Dogs          78   198   0.494    0.485 .5-1 y         3.45 No     
10 Feist         79   226   0.600    0.597 .5-1 y         4.89 No     
# ℹ 15 more rows
…
